4. Data transformation with dplyr - SC1
…
##   maxDem meanTemp nHoly
## 1  52596 12.20725    56

Above we are reducing the whole data set to a vector containing the maximum electricity demand, the mean temperature and the total number of holidays, calculated across the whole data.frame. Using summarise in this simple way can be handy sometimes, but we could do the same thing quite easily in base R. It is more interesting to use summarise in conjunction group_by, as the following example illustrates.

Recall that the UKload data set contains daily electricity demand observations (NetDemand), representing the total demand in the UK between 11:30am and 12am (minus embedded production, e.g. from solar panels). Now, suppose that we want to model the total demand during a week, using some of the other variables. To do this it is useful to exploit the group_by function, which takes as input a data.frame and groups its rows using one or more variables. For example:

library(lubridate)
UKweek <- UKload %>% mutate(wk = week(Date)) %>% 
                     group_by(Year, wk)
UKweek

## # A tibble: 2,008 x 11
## # Groups:   Year, wk [291]
##    NetDemand    wM wM_s95   Posan Dow    Trend NetDemand.48 Holy   Year
##        <dbl> <dbl>  <dbl>   <dbl> <fct>  <dbl>        <dbl> <fct> <int>
##  1     38353  6.05   5.56 0.00137 same… 1.29e9        38353 1      2011
##  2     41192  2.80   3.23 0.00411 dima… 1.29e9        38353 0      2011
##  3     43442  2.10   1.86 0.00685 lundi 1.29e9        41192 0      2011
##  4     50736  3.44   2.31 0.00959 mardi 1.29e9        43442 0      2011
##  5     50438  5.96   4.72 0.0123  merc… 1.29e9        50736 0      2011
##  6     50064  4.12   4.59 0.0151  jeudi 1.29e9        50438 0      2011
##  7     51698  3.08   2.45 0.0178  vend… 1.29e9        50064 0      2011
##  8     43988  7.08   7.25 0.0205  same… 1.29e9        51698 0      2011
##  9     43340  4.89   3.53 0.0233  dima… 1.29e9        43988 0      2011
## 10     50645  6.33   3.47 0.0260  lundi 1.29e9        43340 0      2011
## # … with 1,998 more rows, and 2 more variables: Date <dttm>, wk <dbl>
…
so we can use them pretty much as if they were just data.frames. Notice that the structure of the UKweek tibble is printed nicely on the console, in fact we can see its size, the class of each variable (e.g. wM is a double <dbl> and Dow is a factor <fct>) and we can also see that it has been grouped by year and week (Groups: Year, wk [1]).

The fact that the UKweek has been grouped by week and year, makes so that if we perform dplyr-based operations to it, these will be applied by group. For instance, here:

UKweek %<>% summarise(TotDemand = sum(NetDemand),
                      tempMax = max(wM), 
                      tempMin = min(wM),
                      Posan = mean(Posan), 
                      nHoly = factor(sum(Holy == "1")))

## `summarise()` regrouping output by 'Year' (override with `.groups` argument)

UKweek

## # A tibble: 291 x 7
## # Groups:   Year [6]
##     Year    wk TotDemand tempMax tempMin   Posan nHoly
##    <int> <dbl>     <dbl>   <dbl>   <dbl>   <dbl> <fct>
##  1  2011     1    325923    6.05   2.10  0.00959 1    
##  2  2011     2    332107   12.5    4.89  0.0288  0    
##  3  2011     3    329419   12.2    1.29  0.0479  0    
##  4  2011     4    340075    7.63   1.42  0.0671  0    
##  5  2011     5    339415   11.3    0.968 0.0863  0    
##  6  2011     6    319443   11.5    7.05  0.105   0    
##  7  2011     7    320058    8.85   6.01  0.125   0    
##  8  2011     8    323699   13.0    4.46  0.144   0    
##  9  2011     9    321129    8.28   3.07  0.163   0    
## 10  2011    10    314010   10.8    4.83  0.182   0    
## # … with 281 more rows
…
