5. Data reshaping with dplyr and tidyr - SC1
…
longDat %<>% group_by(ID) %>%
             mutate(counter = row_number()) %>%
             ungroup()

where we use ungroup to remove the grouping created by group_by. Now, suppose that we were given longDat, and that we wanted to spread it out on a wide format (as in the original indCons data set). We can achieve this using the tidyr::pivot_wider function:

wideDat <- longDat %>% pivot_wider(names_from = "ID", values_from = "dem")

print(wideDat, n = 5, width = 60, n_extra = 0)

## Warning: The `n_extra` argument of `print()` is deprecated as of pillar 1.6.2.
## ℹ Please use the `max_extra_cols` argument instead.

## # A tibble: 16,799 × 101
##   counter I1002 I1003 I1004 I1005 I1013 I1015 I1018 I1020
##     <int> <dbl> <dbl> <dbl> <dbl> <dbl> <dbl> <dbl> <dbl>
## 1       1 0.022 0.593  2.00 0.755 0.035 0.398 0.547 0.376
## 2       2 0.133 0.707  1.60 0.898 0.112 0.689 0.603 0.275
## 3       3 0.094 0.684  1.52 0.736 0.046 0.407 0.511 0.259
## 4       4 0.023 0.563  1.39 0.738 0.036 0.223 0.593 0.249
## 5       5 0.133 0.489  1.22 0.849 0.065 0.132 0.57  0.241
## # … with 16,794 more rows
…
longDat3 <- wideDat %>% pivot_longer(cols = starts_with("I1"), names_to = "ID", values_to = "dem", names_transform = list(ID = as.factor)) %>% dplyr::arrange(ID)

where we are using starts_with to gather all the columns that start with the “I1” string. The result is identical:

identical(longDat2, longDat3)

## [1] TRUE

As an exercise, you might want to think about what the following code does:

strange <- wideDat %>% pivot_longer(cols = c(I1002, I1003), names_to = "ID", values_to = "dem", names_transform = list(ID = as.factor))
strange

## # A tibble: 33,598 × 101
##    counter I1004 I1005 I1013 I1015 I1018 I1020 I1022 I1024 I1027 I1033 I1036
##      <int> <dbl> <dbl> <dbl> <dbl> <dbl> <dbl> <dbl> <dbl> <dbl> <dbl> <dbl>
##  1       1  2.00 0.755 0.035 0.398 0.547 0.376 0.229 1.03  0.07  0.79  0.602
##  2       1  2.00 0.755 0.035 0.398 0.547 0.376 0.229 1.03  0.07  0.79  0.602
##  3       2  1.60 0.898 0.112 0.689 0.603 0.275 0.198 0.807 0.041 0.361 0.565
##  4       2  1.60 0.898 0.112 0.689 0.603 0.275 0.198 0.807 0.041 0.361 0.565
##  5       3  1.52 0.736 0.046 0.407 0.511 0.259 0.201 0.859 0.027 0.363 0.527
##  6       3  1.52 0.736 0.046 0.407 0.511 0.259 0.201 0.859 0.027 0.363 0.527
##  7       4  1.39 0.738 0.036 0.223 0.593 0.249 0.212 0.21  0.047 0.215 0.609
##  8       4  1.39 0.738 0.036 0.223 0.593 0.249 0.212 0.21  0.047 0.215 0.609
##  9       5  1.22 0.849 0.065 0.132 0.57  0.241 0.121 0.056 0.019 0.133 0.203
## 10       5  1.22 0.849 0.065 0.132 0.57  0.241 0.121 0.056 0.019 0.133 0.203
## # … with 33,588 more rows, and 89 more variables: I1039 <dbl>, I1041 <dbl>,
## #   I1042 <dbl>, I1044 <dbl>, I1047 <dbl>, I1052 <dbl>, I1054 <dbl>,
## #   I1055 <dbl>, I1057 <dbl>, I1058 <dbl>, I1059 <dbl>, I1060 <dbl>,
## #   I1061 <dbl>, I1062 <dbl>, I1064 <dbl>, I1065 <dbl>, I1067 <dbl>,
## #   I1069 <dbl>, I1073 <dbl>, I1075 <dbl>, I1076 <dbl>, I1077 <dbl>,
## #   I1079 <dbl>, I1081 <dbl>, I1082 <dbl>, I1083 <dbl>, I1086 <dbl>,
## #   I1091 <dbl>, I1093 <dbl>, I1096 <dbl>, I1099 <dbl>, I1102 <dbl>, …
…
